{
  "configVersion": 2,
  "packages": [
    {
      "name": "async",
      "rootUri": "file:///Users/admin/.pub-cache/hosted/pub.dev/async-2.10.0",
      "packageUri": "lib/",
      "languageVersion": "2.18"
    },
    {
      "name": "boolean_selector",
      "rootUri": "file:///Users/admin/.pub-cache/hosted/pub.dev/boolean_selector-2.1.1",
      "packageUri": "lib/",
      "languageVersion": "2.17"
    },
    {
      "name": "camera",
      "rootUri": "file:///Users/admin/.pub-cache/git/plugins-11cc4e1acca3025a507e84a574ab0246576efe95/packages/camera/camera",
      "packageUri": "lib/",
      "languageVersion": "2.14"
    },
    {
      "name": "camera_platform_interface",
      "rootUri": "file:///Users/admin/.pub-cache/hosted/pub.dev/camera_platform_interface-2.4.1",
      "packageUri": "lib/",
      "languageVersion": "2.12"
    },
    {
      "name": "camera_web",
      "rootUri": "file:///Users/admin/.pub-cache/hosted/pub.dev/camera_web-0.2.1+6",
      "packageUri": "lib/",
      "languageVersion": "2.12"
    },
    {
      "name": "characters",
      "rootUri": "file:///Users/admin/.pub-cache/hosted/pub.dev/characters-1.2.1",
      "packageUri": "lib/",
      "languageVersion": "2.12"
    },
    {
      "name": "clock",
      "rootUri": "file:///Users/admin/.pub-cache/hosted/pub.dev/clock-1.1.1",
      "packageUri": "lib/",
      "languageVersion": "2.12"
    },
    {
      "name": "collection",
      "rootUri": "file:///Users/admin/.pub-cache/hosted/pub.dev/collection-1.17.0",
      "packageUri": "lib/",
      "languageVersion": "2.12"
    },
    {
      "name": "cross_file",
      "rootUri": "file:///Users/admin/.pub-cache/hosted/pub.dev/cross_file-0.3.3+4",
      "packageUri": "lib/",
      "languageVersion": "2.17"
    },
    {
      "name": "csslib",
      "rootUri": "file:///Users/admin/.pub-cache/hosted/pub.dev/csslib-0.17.2",
      "packageUri": "lib/",
      "languageVersion": "2.12"
    },
    {
      "name": "fake_async",
      "rootUri": "file:///Users/admin/.pub-cache/hosted/pub.dev/fake_async-1.3.1",
      "packageUri": "lib/",
      "languageVersion": "2.12"
    },
    {
      "name": "flutter",
      "rootUri": "file:///Users/admin/flutter/packages/flutter",
      "packageUri": "lib/",
      "languageVersion": "2.17"
    },
    {
      "name": "flutter_lints",
      "rootUri": "file:///Users/admin/.pub-cache/hosted/pub.dev/flutter_lints-2.0.1",
      "packageUri": "lib/",
      "languageVersion": "2.17"
    },
    {
      "name": "flutter_native_image",
      "rootUri": "file:///Users/admin/.pub-cache/hosted/pub.dev/flutter_native_image-0.0.6+1",
      "packageUri": "lib/",
      "languageVersion": "2.12"
    },
    {
      "name": "flutter_overlay_loader",
      "rootUri": "file:///Users/admin/.pub-cache/hosted/pub.dev/flutter_overlay_loader-2.0.0",
      "packageUri": "lib/",
      "languageVersion": "2.12"
    },
    {
      "name": "flutter_plugin_android_lifecycle",
      "rootUri": "file:///Users/admin/.pub-cache/hosted/pub.dev/flutter_plugin_android_lifecycle-2.0.9",
      "packageUri": "lib/",
      "languageVersion": "2.12"
    },
    {
      "name": "flutter_test",
      "rootUri": "file:///Users/admin/flutter/packages/flutter_test",
      "packageUri": "lib/",
      "languageVersion": "2.17"
    },
    {
      "name": "flutter_web_plugins",
      "rootUri": "file:///Users/admin/flutter/packages/flutter_web_plugins",
      "packageUri": "lib/",
      "languageVersion": "2.17"
    },
    {
      "name": "html",
      "rootUri": "file:///Users/admin/.pub-cache/hosted/pub.dev/html-0.15.2",
      "packageUri": "lib/",
      "languageVersion": "2.17"
    },
    {
      "name": "http",
      "rootUri": "file:///Users/admin/.pub-cache/hosted/pub.dev/http-0.13.5",
      "packageUri": "lib/",
      "languageVersion": "2.14"
    },
    {
      "name": "http_parser",
      "rootUri": "file:///Users/admin/.pub-cache/hosted/pub.dev/http_parser-4.0.2",
      "packageUri": "lib/",
      "languageVersion": "2.12"
    },
    {
      "name": "js",
      "rootUri": "file:///Users/admin/.pub-cache/hosted/pub.dev/js-0.6.5",
      "packageUri": "lib/",
      "languageVersion": "2.16"
    },
    {
      "name": "lints",
      "rootUri": "file:///Users/admin/.pub-cache/hosted/pub.dev/lints-2.0.1",
      "packageUri": "lib/",
      "languageVersion": "2.17"
    },
    {
      "name": "matcher",
      "rootUri": "file:///Users/admin/.pub-cache/hosted/pub.dev/matcher-0.12.13",
      "packageUri": "lib/",
      "languageVersion": "2.18"
    },
    {
      "name": "material_color_utilities",
      "rootUri": "file:///Users/admin/.pub-cache/hosted/pub.dev/material_color_utilities-0.2.0",
      "packageUri": "lib/",
      "languageVersion": "2.13"
    },
    {
      "name": "meta",
      "rootUri": "file:///Users/admin/.pub-cache/hosted/pub.dev/meta-1.8.0",
      "packageUri": "lib/",
      "languageVersion": "2.12"
    },
    {
      "name": "path",
      "rootUri": "file:///Users/admin/.pub-cache/hosted/pub.dev/path-1.8.2",
      "packageUri": "lib/",
      "languageVersion": "2.12"
    },
    {
      "name": "pedantic",
      "rootUri": "file:///Users/admin/.pub-cache/hosted/pub.dev/pedantic-1.11.1",
      "packageUri": "lib/",
      "languageVersion": "2.12"
    },
    {
      "name": "plugin_platform_interface",
      "rootUri": "file:///Users/admin/.pub-cache/hosted/pub.dev/plugin_platform_interface-2.1.4",
      "packageUri": "lib/",
      "languageVersion": "2.17"
    },
    {
      "name": "quiver",
      "rootUri": "file:///Users/admin/.pub-cache/hosted/pub.dev/quiver-3.2.1",
      "packageUri": "lib/",
      "languageVersion": "2.17"
    },
    {
      "name": "sky_engine",
      "rootUri": "file:///Users/admin/flutter/bin/cache/pkg/sky_engine",
      "packageUri": "lib/",
      "languageVersion": "2.12"
    },
    {
      "name": "source_span",
      "rootUri": "file:///Users/admin/.pub-cache/hosted/pub.dev/source_span-1.9.1",
      "packageUri": "lib/",
      "languageVersion": "2.14"
    },
    {
      "name": "stack_trace",
      "rootUri": "file:///Users/admin/.pub-cache/hosted/pub.dev/stack_trace-1.11.0",
      "packageUri": "lib/",
      "languageVersion": "2.18"
    },
    {
      "name": "stream_channel",
      "rootUri": "file:///Users/admin/.pub-cache/hosted/pub.dev/stream_channel-2.1.1",
      "packageUri": "lib/",
      "languageVersion": "2.14"
    },
    {
      "name": "stream_transform",
      "rootUri": "file:///Users/admin/.pub-cache/hosted/pub.dev/stream_transform-2.1.0",
      "packageUri": "lib/",
      "languageVersion": "2.14"
    },
    {
      "name": "string_scanner",
      "rootUri": "file:///Users/admin/.pub-cache/hosted/pub.dev/string_scanner-1.2.0",
      "packageUri": "lib/",
      "languageVersion": "2.18"
    },
    {
      "name": "term_glyph",
      "rootUri": "file:///Users/admin/.pub-cache/hosted/pub.dev/term_glyph-1.2.1",
      "packageUri": "lib/",
      "languageVersion": "2.12"
    },
    {
      "name": "test_api",
      "rootUri": "file:///Users/admin/.pub-cache/hosted/pub.dev/test_api-0.4.16",
      "packageUri": "lib/",
      "languageVersion": "2.18"
    },
    {
      "name": "typed_data",
      "rootUri": "file:///Users/admin/.pub-cache/hosted/pub.dev/typed_data-1.3.1",
      "packageUri": "lib/",
      "languageVersion": "2.12"
    },
    {
      "name": "vector_math",
      "rootUri": "file:///Users/admin/.pub-cache/hosted/pub.dev/vector_math-2.1.4",
      "packageUri": "lib/",
      "languageVersion": "2.14"
    },
    {
      "name": "video_player",
      "rootUri": "file:///Users/admin/.pub-cache/hosted/pub.dev/video_player-2.5.3",
      "packageUri": "lib/",
      "languageVersion": "2.14"
    },
    {
      "name": "video_player_android",
      "rootUri": "file:///Users/admin/.pub-cache/hosted/pub.dev/video_player_android-2.3.12",
      "packageUri": "lib/",
      "languageVersion": "2.17"
    },
    {
      "name": "video_player_avfoundation",
      "rootUri": "file:///Users/admin/.pub-cache/hosted/pub.dev/video_player_avfoundation-2.4.1",
      "packageUri": "lib/",
      "languageVersion": "2.18"
    },
    {
      "name": "video_player_platform_interface",
      "rootUri": "file:///Users/admin/.pub-cache/hosted/pub.dev/video_player_platform_interface-6.0.2",
      "packageUri": "lib/",
      "languageVersion": "2.12"
    },
    {
      "name": "video_player_web",
      "rootUri": "file:///Users/admin/.pub-cache/hosted/pub.dev/video_player_web-2.0.15",
      "packageUri": "lib/",
      "languageVersion": "2.17"
    },
    {
      "name": "huawei_face_detection",
      "rootUri": "../",
      "packageUri": "lib/",
      "languageVersion": "2.18"
    }
  ],
  "generated": "2023-03-17T08:09:08.545664Z",
  "generator": "pub",
  "generatorVersion": "2.19.2"
}
